0.4310431480407715
0.728054404258728
0.3467866778373718
0.11227381229400635
0.7246789932250977
0.46100836992263794
0.3952668309211731
0.4465321898460388
0.4281671643257141
0.3813322186470032
0.3416805863380432
0.3536646366119385
0.522418349981308
0.42774367332458496
0.42709797620773315
0.5447925925254822
0.5229544639587402
0.7477857768535614
0.4383819103240967
0.43475037813186646
0.43199801445007324
0.4147348999977112
0.35872113704681396
0.4375377297401428
0.6365245580673218
0.5123342871665955
0.4915258288383484
0.5469377338886261
0.42372041940689087
0.5484369695186615
0.5141725540161133
0.5717445015907288
0.5368090867996216
0.6040960550308228
0.5355750620365143
0.5436131060123444
0.47274863719940186
0.5112942457199097
0.6115860641002655
0.47554492950439453
0.5230126678943634
0.512334942817688
0.5771317780017853
0.5825361609458923
0.6040253043174744
0.6306444704532623
0.5767237842082977
0.6294357180595398
0.6683549284934998
0.6348667144775391
0.6565849781036377
0.6253758668899536
0.6256521940231323
0.5476706624031067
0.49494558572769165
0.542026698589325
0.6003196239471436
0.5981421172618866
0.643002986907959
0.6695160865783691
0.6802752912044525
0.6959244906902313
0.5294997692108154
0.6797352731227875
0.6088181138038635
0.661890834569931
0.7016803026199341
0.6678735613822937
0.664993941783905
0.6865155398845673
0.6556702256202698
0.5691571831703186
0.6569810509681702
0.6893095076084137
0.7047363817691803
0.7109459638595581
0.624638557434082
0.7034542560577393
0.6924508512020111
0.7265517115592957
0.6292215585708618
0.607134997844696
0.6962553858757019
0.7361056804656982
0.7122580409049988
0.6960721611976624
0.7132710218429565
0.6881661713123322
0.6910808086395264
0.7305764853954315
0.7411438524723053
0.7473955452442169
0.7485213279724121
0.7571471333503723
0.7569805383682251
0.7860512435436249
0.7949854582548141
0.7854271829128265
0.7965762466192245
0.7913461476564407
0.785904124379158
0.795617938041687
0.7942619323730469
0.8066089451313019
0.8105311244726181
0.8055519014596939
0.7989541590213776
0.7923844307661057
0.8183649778366089
0.8060707747936249
0.8018896877765656
0.7934638112783432
0.8075252771377563
0.8091837912797928
0.8264275640249252
0.8052488714456558
0.8108329474925995
0.7935953140258789
0.796681135892868
0.7789072096347809
0.7706103026866913
0.7888148874044418
0.773399144411087
0.7708750814199448
0.7739657610654831
0.7819145321846008
0.7765158265829086
0.7905999720096588
0.7936903387308121
0.7820083647966385
0.7910187840461731
0.7944640964269638
0.8002060353755951
0.7963367998600006
0.7733246237039566
0.7940472066402435
0.7976694852113724
0.8121798485517502
0.8225712180137634
0.820371225476265
0.8303624838590622
0.8395482301712036
0.842808797955513
0.836046040058136
0.8489420115947723
0.8561601936817169
0.8507324904203415
0.8534087389707565
0.8626804351806641
0.8677001297473907
0.8559378236532211
0.8665392994880676
0.8528161197900772
0.8662979453802109
0.8622397035360336
0.8688324093818665
0.8662448674440384
0.8621089309453964
0.8772351369261742
0.8807727918028831
0.8886190354824066
0.881842352449894
0.8898799270391464
0.8910175412893295
0.8834656924009323
0.8859561011195183
0.8843913897871971
0.8905647397041321
0.8926289975643158
0.8946611359715462
0.8995185866951942
0.8993466198444366
0.8940709605813026
0.8971420153975487
0.8960995227098465
0.8940542861819267
0.8947647213935852
0.9006456956267357
0.8970056995749474
0.9035194665193558
0.900963231921196
0.9055287837982178
0.9029471352696419
0.907780297100544
0.9007500037550926
0.9015031456947327
0.8916802853345871
0.8976651579141617
0.8939848691225052
0.8891247883439064
0.8971643596887589
0.897404670715332
0.896165169775486
0.8994850739836693
0.8964797779917717
0.890866331756115
0.891136571764946
0.8926336169242859
0.8844824135303497
0.8937057182192802
0.8957160860300064
0.887144111096859
0.8900632858276367
0.8771756961941719
0.8713250458240509
0.8675763159990311
0.8580171763896942
0.8632317036390305
0.868456244468689
0.8613670170307159
0.8658774942159653
0.8698606044054031
0.8683765828609467
0.8613046407699585
0.8633789271116257
0.8685570508241653
0.8712284415960312
0.8811807930469513
0.876633495092392
0.8814732581377029
0.8855353444814682
0.8877474889159203
0.8900751769542694
0.8846147954463959
0.8783935755491257
0.8917309045791626
0.9031351953744888
0.8971551209688187
0.8874118104577065
0.8914649710059166
0.888016514480114
0.8927656337618828
0.87677151709795
0.8891009986400604
0.8860646784305573
0.897203840315342
0.8994089290499687
0.9009442031383514
0.9019811600446701
0.8989476189017296
0.9056613966822624
0.9053928703069687
0.9022487103939056
0.9052290171384811
0.9058700054883957
0.9063075631856918
0.9134404212236404
0.9049143120646477
0.9025851190090179
0.8983897939324379
0.9007869809865952
0.8954534530639648
0.9023151844739914
0.8975331634283066
0.8955865129828453
0.8902544602751732
0.8883396163582802
0.882550522685051
0.8854085057973862
0.8822430595755577
0.8774045184254646
0.8891783580183983
0.892552100121975
0.8990536034107208
0.8994302973151207
0.9005166441202164
0.9058604165911674
0.9057421237230301
0.9064802080392838
0.9046319201588631
0.8959883525967598
0.9058780893683434
0.9097766950726509
0.9068114012479782
0.9151180014014244
0.9079237803816795
0.9144486263394356
0.9134483858942986
0.911874309182167
0.9132103994488716
0.908293217420578
0.909677229821682
0.9128618985414505
0.914085291326046
0.9118335247039795
0.9094415232539177
0.9152501374483109
0.9218754693865776
0.9225784614682198
0.9204924702644348
0.9204514026641846
0.9229312464594841
0.9236810952425003
0.9200035259127617
0.92081169039011
0.9183670282363892
0.9215731769800186
0.9129414185881615
0.9191069155931473
0.9174541309475899
0.9172643199563026
0.9183583185076714
0.922912172973156
0.928105540573597
0.9279935732483864
