0.849675253033638
0.35222458839416504
0.301738977432251
-5.7267866134643555
0.24328649044036865
0.7317263185977936
0.7847620695829391
0.7122409641742706
0.738177090883255
0.7427980899810791
0.9136868938803673
0.8998174145817757
0.9396148361265659
0.927468866109848
0.7952523529529572
0.5475564002990723
0.4956616759300232
0.7136513590812683
0.515425831079483
0.6771205067634583
0.6499965190887451
0.8392902165651321
0.7093883156776428
0.8930000066757202
0.790647879242897
0.5960959196090698
0.7412932515144348
0.5418531000614166
0.601579338312149
0.8062447011470795
0.6794848144054413
0.8037828356027603
0.6450280845165253
0.616497814655304
0.5253039598464966
0.6377433836460114
0.5974205732345581
0.7037062644958496
0.5827182531356812
0.6021480858325958
0.5051134824752808
0.6972731351852417
0.6653355658054352
0.7515393197536469
0.832631379365921
0.8644072860479355
0.7533028721809387
0.7329189777374268
0.6651767194271088
0.6683461964130402
0.6230308413505554
0.6435146331787109
0.6678391098976135
0.5584816634654999
0.6249834299087524
0.5626973211765289
0.6219617426395416
0.6516091525554657
0.707342803478241
0.7164977490901947
0.7151802480220795
0.6754072904586792
0.6876843571662903
0.729025661945343
0.7725280970335007
0.7993815243244171
0.8152691423892975
0.7640758603811264
0.7491106986999512
0.8046275824308395
0.8421019166707993
0.8204036206007004
0.8502224981784821
0.8748209625482559
0.889500580728054
0.874265193939209
0.8641563653945923
0.8570366650819778
0.8598612248897552
0.8298098146915436
0.8158690184354782
0.8217911720275879
0.8549440950155258
0.7909740805625916
0.8564479053020477
0.8338665962219238
0.8109522759914398
0.8730596601963043
0.8492390215396881
0.8644499778747559
0.8612814247608185
0.8396431803703308
0.858544260263443
0.8797421231865883
0.8297339677810669
0.8040523082017899
0.7928288727998734
0.8247998356819153
0.7974558025598526
0.8080171495676041
0.7761984169483185
0.7757374346256256
0.819251611828804
0.795924961566925
0.8380828201770782
0.8122292757034302
0.8379956781864166
0.8623301833868027
0.8783242553472519
0.870605930685997
0.8509392738342285
0.8811460211873055
0.8470744043588638
0.8882313743233681
0.8800251111388206
0.8650937974452972
0.8907725736498833
0.8849034905433655
0.8619191199541092
0.8709505200386047
0.8696454167366028
0.8679305911064148
0.8802021071314812
0.8703029751777649
0.8634800016880035
0.8743851780891418
0.8673578351736069
0.8640833795070648
0.858877643942833
0.8652980774641037
0.8709932565689087
0.8750761151313782
0.8794869929552078
0.8827689588069916
0.8760802149772644
0.8852638676762581
0.9059248343110085
0.9004880338907242
0.9054429978132248
0.91300168633461
0.9046703651547432
0.9063287451863289
0.9031246155500412
0.9077983349561691
0.9021958187222481
0.9026192203164101
0.9049662128090858
0.9137861877679825
0.9224211201071739
0.9278653711080551
0.9249932840466499
0.9278950020670891
0.9312542751431465
0.9386236295104027
0.9220434799790382
0.9355336502194405
0.938881479203701
0.9294815808534622
0.9185270145535469
0.9255164116621017
0.9375512599945068
0.9267875328660011
0.9256089627742767
0.9272247031331062
0.9269033372402191
0.9266621246933937
0.9226208701729774
0.9223257377743721
0.9235378578305244
0.9241665303707123
0.9218672811985016
0.9247259944677353
0.9239719733595848
0.9211875349283218
0.920503206551075
0.9240599349141121
0.9281077086925507
0.9275880381464958
0.9254869148135185
0.9228488653898239
0.9268584176898003
0.9279236495494843
0.924727126955986
0.9270555004477501
0.9255020394921303
0.9283403009176254
0.925478532910347
0.9246865883469582
0.9259651675820351
0.9263880997896194
0.9250500872731209
0.9270975664258003
0.9277861043810844
0.9282667711377144
0.9282381311058998
0.9271892830729485
0.9294205829501152
0.9318701773881912
0.935381680727005
0.9350677207112312
0.9319733381271362
0.9300663843750954
0.9327984601259232
0.9317594319581985
0.9325533211231232
0.9342458993196487
0.9392746463418007
0.9331339746713638
0.9360480234026909
0.9359190464019775
0.9350695088505745
0.9384206980466843
0.9375378750264645
0.9377182684838772
0.9389078542590141
0.9388123005628586
0.9389532767236233
0.9404610134661198
0.9389063008129597
0.9403709843754768
0.9425209164619446
0.941850371658802
0.9384131506085396
0.9398996867239475
0.9427251182496548
0.9403717517852783
0.9398402981460094
0.9432673454284668
0.9399531558156013
0.9426496811211109
0.9443336054682732
0.9409339278936386
0.9432478249073029
0.9413161315023899
0.942688450217247
0.9416220411658287
0.9436117447912693
0.9425120539963245
0.9433301128447056
0.9467165060341358
0.9428655430674553
0.9438105896115303
0.9438227526843548
0.9431421980261803
0.9435971565544605
0.943689938634634
0.9463859386742115
0.9444898180663586
0.9440542161464691
0.9439105652272701
0.9457855634391308
0.9453932382166386
0.9446185193955898
0.9442861787974834
0.9448333978652954
0.9467890225350857
0.9474621489644051
0.9463769905269146
0.945652324706316
0.9468435198068619
0.9460567757487297
0.9466752707958221
0.946277379989624
0.9462842121720314
0.9476905465126038
0.9467185512185097
0.9476318135857582
0.9487334862351418
0.9483888261020184
0.9450450614094734
0.9458367824554443
0.9460124932229519
0.9460622370243073
0.9465853497385979
0.9455518573522568
0.9454365894198418
0.9458298347890377
0.9461432658135891
0.9462346248328686
0.947015754878521
0.9470570869743824
0.9483698382973671
0.9479959160089493
0.9462585859000683
0.9463494010269642
0.9479744769632816
0.9476839154958725
0.9475230649113655
0.9478121623396873
0.9475291296839714
0.9491520263254642
0.9482991099357605
0.9482741691172123
0.9482202306389809
0.9482133537530899
0.9484564252197742
0.9493397548794746
0.9486382901668549
0.9493818804621696
0.9496877081692219
0.9505465030670166
0.9500685296952724
0.9507638402283192
0.9506450891494751
0.9503594376146793
