{
  "bot_motion": "mmp",
  "clip_range": 0.1,
  "config_file": "/sailhome/clairech/robosuite/robosuite/scripts/default_door.json",
  "control_freq": 20,
  "device": "keyboard",
  "distance": "0_hparam",
  "door_init_qpos": 2.0,
  "door_pos": [
    1.3,
    -0.05,
    1.0
  ],
  "door_quat": [
    1,
    0,
    0,
    -1
  ],
  "door_type": "na",
  "eef_type": "static",
  "ent_coef": 0.0,
  "gamma": 0.99,
  "goal_offset": [
    3.5,
    0.0
  ],
  "horizon": 4096,
  "job_id": 691549,
  "lam": 0.95,
  "minibatches": 4,
  "model": null,
  "n_cpu": 4,
  "n_steps": 8192,
  "opt_epochs": 10,
  "policy": "MlpPolicy",
  "print_info": false,
  "rcoef_arm_door_con": -1,
  "rcoef_arm_handle_con": 0,
  "rcoef_body_door_con": -1,
  "rcoef_dist_to_door": 1.0,
  "rcoef_dist_to_handle": 0,
  "rcoef_door_angle": 1,
  "rcoef_force": -10.0,
  "rcoef_gripper_touch": 0,
  "rcoef_handle_con": 0,
  "rcoef_self_con": 0.0,
  "rcoef_wall_con": -1,
  "replay": false,
  "reset_on_large_force": true,
  "rl_alg": "ppo2",
  "robot_pos": [
    0.0,
    0.0,
    0.0
  ],
  "robot_theta": 0.0,
  "slurm": true,
  "stochastic_replay": false,
  "total_timesteps": 10000000,
  "verbose": 1,
  "vf_coef": 0.5,
  "visualize": false
}