0.5023683309555054
0.6232344806194305
0.7225744128227234
0.8419104665517807
0.833081066608429
0.927291601896286
0.932707853615284
0.8503366261720657
0.8962011635303497
0.8868636339902878
0.8795333504676819
0.8225511461496353
0.7849555760622025
0.753540575504303
0.7658348679542542
0.7483198344707489
0.7005196213722229
0.704683244228363
0.7903468757867813
0.6910210847854614
0.7490217983722687
0.800342470407486
0.7510228008031845
0.7155199944972992
0.7765714675188065
0.8395860493183136
0.8259707093238831
0.9264978542923927
0.8527751863002777
0.7611314803361893
0.8352619260549545
0.7929567992687225
0.806636855006218
0.8028289526700974
0.9079409688711166
0.893340714275837
0.8782701268792152
0.7836125791072845
0.7724134773015976
0.7358835935592651
0.801739364862442
0.7719596177339554
0.8307274281978607
0.7224623262882233
0.703107625246048
0.8102088868618011
0.8451993763446808
0.8502634018659592
0.7975605577230453
0.6775971949100494
0.6651601493358612
0.6222851574420929
0.6661624014377594
0.7056629061698914
0.775906503200531
0.7505119144916534
0.78485307097435
0.7045664489269257
0.8398729860782623
0.8136069774627686
0.7033341228961945
0.695002943277359
0.7292612493038177
0.7305681109428406
0.7431599199771881
0.749856561422348
0.7359893321990967
0.8138506859540939
0.8313556909561157
0.8186165392398834
0.8391420394182205
0.8126908391714096
0.8395233303308487
0.8372324407100677
0.8553385436534882
0.8654152303934097
0.8508600443601608
0.8894974812865257
0.8819775506854057
0.8756071776151657
0.8631518483161926
0.8590981066226959
0.8677773922681808
0.8780253529548645
0.8723696768283844
0.9014625176787376
0.8996759429574013
0.9243787676095963
0.9304871112108231
0.9285782873630524
0.9286755695939064
0.8752101063728333
0.9324010610580444
0.914182499051094
0.9242072775959969
0.9419914297759533
0.9340007603168488
0.9503669887781143
0.934892863035202
0.9234695583581924
0.9289128631353378
0.9323320388793945
0.9447875022888184
0.9371739998459816
0.9373794198036194
0.9330831244587898
0.9196097627282143
0.9270046129822731
0.9372214451432228
0.9324677363038063
0.9484791420400143
0.9551811665296555
0.9562821574509144
0.9581264667212963
0.9628381952643394
0.9605548828840256
0.9531969539821148
0.9706996325403452
0.9683602973818779
0.9703812841325998
0.9738062992691994
0.9760925099253654
0.9774590730667114
0.9808954671025276
0.9834257662296295
0.9861904932186007
0.9878265848383307
0.9892759844660759
0.9917835993692279
0.9931917316280305
0.9938417966477573
0.9945600209757686
0.9941743267700076
0.9948650258593261
0.99541334528476
0.9955802988260984
0.9946576850488782
0.9936549658887088
0.9934668317437172
0.9919958775863051
0.9901606608182192
0.9863066980615258
0.98032839410007
0.9730486553162336
0.9687207341194153
0.9561095125973225
0.9525165818631649
0.9496043585240841
0.9460344649851322
0.9490271657705307
0.9419678300619125
0.9384214505553246
0.9341921359300613
0.93473981320858
0.9334254637360573
0.9371301531791687
0.9377826750278473
0.931391216814518
0.9351654276251793
0.9368813410401344
0.9339556246995926
0.9464277252554893
0.9459779262542725
0.9482618607580662
0.9461986050009727
0.9422937333583832
0.9458397626876831
0.9379872493445873
0.9440381899476051
0.94633449614048
0.9548319913446903
0.960864394903183
0.9535815604031086
0.9661011919379234
0.9460532553493977
0.9462208040058613
0.9495887160301208
0.9449813403189182
0.948932945728302
0.9497503563761711
0.9471681788563728
0.9500101692974567
0.9488099180161953
0.9477243572473526
0.9524758234620094
0.9536631926894188
0.9557190462946892
0.9547654688358307
0.9521286226809025
0.9559515379369259
0.9542931132018566
0.955041378736496
0.9545086696743965
0.9577625580132008
0.9569496735930443
0.9560378417372704
0.9574484936892986
0.954596783965826
0.9571698717772961
0.9561201483011246
0.9581099264323711
0.9570144526660442
0.9581702500581741
0.9589322097599506
0.9573035836219788
0.9565890543162823
0.9584777913987637
0.9612519890069962
0.9612980671226978
0.9579253382980824
0.9562114514410496
0.9565715603530407
0.9586122781038284
0.959465567022562
0.9608550295233727
0.959989745169878
0.9585905708372593
0.9580233879387379
0.9605349861085415
0.9594038352370262
0.9614601247012615
0.9632924348115921
0.9630247876048088
0.9623065143823624
0.9615554809570312
0.9619483649730682
0.9628886058926582
0.9622063413262367
0.9621950387954712
0.9615754261612892
0.9621142745018005
0.9618201069533825
0.9633941501379013
0.9646536521613598
0.9640511088073254
0.963847991079092
0.9643794372677803
0.9655079916119576
0.966560747474432
0.9659952484071255
0.9653740413486958
0.9648787453770638
0.9649131745100021
0.9643757082521915
0.9638522267341614
0.9636346809566021
0.9632915109395981
0.9644018188118935
0.9645855277776718
0.9647420085966587
0.9652785398066044
0.96579460054636
0.9658908993005753
0.9649823568761349
0.9654694609344006
0.9660757444798946
0.9660745412111282
0.966371200978756
0.9657898843288422
0.9659564718604088
0.9653247334063053
0.9652937017381191
0.9650382734835148
0.9654038548469543
0.9651319161057472
0.965453740209341
0.9654061608016491
0.9659762606024742
0.9656375013291836
0.9662123620510101
0.9660746976733208
0.9661999978125095
0.9661726653575897
0.9659810997545719
0.966575987637043
0.9664190411567688
0.9663932211697102
0.9662932492792606
0.9664584174752235
0.966944258660078
0.9670437499880791
0.9673003144562244
0.9670522436499596
0.9675081856548786
0.9677455499768257
0.9676966182887554
0.9677311182022095
0.9678823910653591
0.9681211821734905
0.9681844636797905
0.9683062136173248
0.9684086889028549
0.9686695821583271
0.9683757834136486
0.9685533568263054
0.9684024676680565
0.9684052914381027
0.9684123173356056
0.9684868305921555
0.9686393924057484
0.9681795202195644
0.9684207402169704
0.9681545123457909
0.9680420346558094
0.9682887904345989
