0.7263615131378174
0.5005499720573425
0.5198926329612732
0.7324689030647278
0.8201652765274048
0.7274741232395172
0.7845294624567032
0.7204189300537109
0.8438076078891754
0.6031195223331451
0.8874194547533989
0.5783460736274719
0.9011660516262054
0.731491893529892
0.45811665058135986
0.3508683443069458
0.40677309036254883
0.6502974629402161
0.38827627897262573
0.4030091166496277
0.6936075091362
0.9128167107701302
0.6281205713748932
0.5111570358276367
0.5042482912540436
0.45985108613967896
0.4485616087913513
0.5444951057434082
0.6353738307952881
0.5369518101215363
0.7131111025810242
0.860866129398346
0.6956935822963715
0.9567902572453022
0.8242190033197403
0.6107916533946991
0.662804365158081
0.6097622215747833
0.5822586417198181
0.7044785916805267
0.6665529310703278
0.7177122533321381
0.6107092201709747
0.588286429643631
0.6159688532352448
0.6064049899578094
0.5955521762371063
0.6421696841716766
0.6488478779792786
0.6743314564228058
0.7094168961048126
0.7388585209846497
0.7189633250236511
0.7892370522022247
0.8219978958368301
0.823596715927124
0.7275273501873016
0.6489679217338562
0.6427537202835083
0.7106399834156036
0.8786847591400146
0.8383379876613617
0.7683681696653366
0.7768259346485138
0.7271057963371277
0.7693895697593689
0.7282094955444336
0.7481180727481842
0.7240942418575287
0.7548830658197403
0.7769874930381775
0.7723436802625656
0.7979689836502075
0.8227827996015549
0.8226198107004166
0.7839972078800201
0.7963763326406479
0.7954919785261154
0.8250323385000229
0.797921746969223
0.7809206694364548
0.781051754951477
0.7915728837251663
0.8476028144359589
0.8105906248092651
0.8466016054153442
0.8853310123085976
0.859497144818306
0.8510974645614624
0.862003281712532
0.8236777186393738
0.8522718548774719
0.829287514090538
0.8278543651103973
0.849144384264946
0.878294013440609
0.8576809167861938
0.8655861467123032
0.83989018201828
0.8374812602996826
0.8457456678152084
0.833754763007164
0.8254297226667404
0.8172436505556107
0.8155996650457382
0.8517249524593353
0.8641920387744904
0.8383709788322449
0.8374780565500259
0.8255122303962708
0.8272249400615692
0.8270451724529266
0.8223409503698349
0.8399776071310043
0.8293793499469757
0.8361435532569885
0.8449087888002396
0.834685891866684
0.8463023155927658
0.8462709188461304
0.8431151360273361
0.8476542085409164
0.8522809594869614
0.8697362244129181
0.8577274084091187
0.8539209365844727
0.8685018718242645
0.8631381839513779
0.8592813611030579
0.8637261092662811
0.8628657907247543
0.8685989379882812
0.8632178455591202
0.8651760071516037
0.8665504157543182
0.8749596476554871
0.8639962375164032
0.8710765391588211
0.8804430365562439
0.8736918866634369
0.8693137168884277
0.8828277364373207
0.8902779668569565
0.8690962791442871
0.8622620850801468
0.8593459576368332
0.863103836774826
0.8698082864284515
0.873441681265831
0.8761842027306557
0.8748655319213867
0.8771684095263481
0.8898230120539665
0.8799701258540154
0.8827172070741653
0.8862700909376144
0.8782672733068466
0.8836066871881485
0.8823859915137291
0.8791273683309555
0.8775385171175003
0.8810314759612083
0.8894126936793327
0.889568142592907
0.8889647722244263
0.894227109849453
0.8953596204519272
0.8970131203532219
0.9011225998401642
0.9022856280207634
0.9024205952882767
0.9051102325320244
0.9106059372425079
0.9271005243062973
0.9200190529227257
0.9103957936167717
0.9079055562615395
0.9051381573081017
0.9073168411850929
0.9086880013346672
0.9096998125314713
0.9149320349097252
0.913477711379528
0.9135437980294228
0.9277557879686356
0.9172677025198936
0.9170770570635796
0.9153955280780792
0.9149067774415016
0.9197966307401657
0.9139386117458344
0.9186603501439095
0.9184452295303345
0.9242258220911026
0.9213343933224678
0.9204182252287865
0.9236297681927681
0.9202948659658432
0.9218179509043694
0.9247223809361458
0.9226021766662598
0.9207594245672226
0.9195366054773331
0.9226067811250687
0.9204615131020546
0.9222529530525208
0.9230165109038353
0.9224115684628487
0.9240197613835335
0.9233854934573174
0.9277533069252968
0.920798733830452
0.9233289659023285
0.923542782664299
0.9266057908535004
0.9258243292570114
0.9226151257753372
0.9250650256872177
0.9266729280352592
0.9244488254189491
0.927329309284687
0.9308264330029488
0.931404285132885
0.9296233057975769
0.9306573793292046
0.9296470731496811
0.9350473582744598
0.9408190175890923
0.9405284151434898
0.936651349067688
0.9357489347457886
0.9408064745366573
0.9396262615919113
0.940261110663414
0.940956600010395
0.9417447596788406
0.9412927180528641
0.9414696097373962
0.9435728192329407
0.9412850439548492
0.9462519474327564
0.9482629112899303
0.9441181384027004
0.9425343088805676
0.9422611892223358
0.9420439153909683
0.9424639940261841
0.9457830339670181
0.9473679587244987
0.945658665150404
0.9453133568167686
0.9454662390053272
0.9458733387291431
0.9459958039224148
0.9494165666401386
0.949110958725214
0.9471070282161236
0.9486505016684532
0.9491447098553181
0.950108990073204
0.9496441558003426
0.9490816257894039
0.9498965442180634
0.9495352320373058
0.9498468488454819
0.9508308097720146
0.9511922933161259
0.9518525339663029
0.9514772780239582
0.9513050094246864
0.9512129165232182
0.9517210312187672
0.9536575563251972
0.9540427401661873
0.9525539837777615
0.9527413994073868
0.9535567611455917
0.9557839222252369
0.9551604427397251
0.9550290443003178
0.9559766426682472
0.9550568982958794
0.9554561227560043
0.9553706422448158
0.9562327563762665
0.9583477862179279
0.9573816061019897
0.9580281637609005
0.9569561704993248
0.9589050821959972
0.957556951791048
0.9580237604677677
0.957597553730011
0.9572311155498028
0.9590980112552643
0.9592579267919064
0.9593913741409779
0.9592127911746502
0.9594422169029713
0.9596389606595039
0.9600756950676441
0.9595995955169201
0.9611165337264538
0.9607178531587124
0.960483867675066
