0.24438732862472534
0.7325411140918732
0.27519655227661133
0.3976981043815613
0.875471331179142
0.9113174751400948
0.9462075382471085
0.8924743384122849
0.9088508114218712
0.9534738510847092
0.9491272270679474
0.9577455446124077
0.9575269930064678
0.9656404480338097
0.9677988402545452
0.7976090610027313
0.9744198508560658
0.5685586929321289
0.38077038526535034
0.429210364818573
0.7114684581756592
0.5179595649242401
0.6551986634731293
0.9836763329803944
0.5793106257915497
0.6633366942405701
0.9196527674794197
0.9872026983648539
0.9730420988053083
0.8998899832367897
0.9462870545685291
0.8886742144823074
0.9933016840368509
0.8635666221380234
0.9798877686262131
0.9301416203379631
0.9233460202813148
0.8776280358433723
0.8764559850096703
0.7999121248722076
0.9063960686326027
0.7706495225429535
0.9649622403085232
0.9440708383917809
0.7710366994142532
0.7120922207832336
0.802804484963417
0.7849996984004974
0.8396772891283035
0.9728792868554592
0.9798367712646723
0.9298642426729202
0.8550756573677063
0.9342946037650108
0.844245657324791
0.9056529402732849
0.8698519468307495
0.7915855497121811
0.880159966647625
0.9143497794866562
0.8347441256046295
0.8809342011809349
0.9075078517198563
0.8539925217628479
0.869854748249054
0.870220273733139
0.9247260689735413
0.9182005599141121
0.9490121454000473
0.9917988004162908
0.9696324374526739
0.9258518815040588
0.96030393242836
0.912785716354847
0.9274758845567703
0.9102711528539658
0.9040887653827667
0.9214185252785683
0.9387333057820797
0.9086485132575035
0.9322766438126564
0.9512672238051891
0.9429960511624813
0.9372960180044174
0.93057681620121
